<svg id="svg8" width="22.452" height="22.454" version="1.1" viewBox="0 0 22.452 22.454" xmlns="http://www.w3.org/2000/svg">
 <ellipse id="path818" cx="11.226" cy="11.228" rx="11.226" ry="11.226" style="fill:#0b2a37;paint-order:markers fill stroke"/>
 <path id="circle0" d="m2.1407 11.168c1.6e-6 3.6724 2.2072 7.0446 5.6082 8.4531 3.3928 1.4053 7.3045 0.62727 9.901-1.9695 2.5968-2.5968 3.3749-6.5084 1.9695-9.901-1.4086-3.4006-4.7762-5.6097-8.4483-5.6097v1.6328c3.0167 0 5.7895 1.822 6.9407 4.6013 1.1545 2.7871 0.51768 5.9883-1.6154 8.1213-2.1331 2.1331-5.3344 2.7699-8.1213 1.6154-2.7789-1.1511-4.6013-3.9271-4.6013-6.9439z" style="color-rendering:auto;dominant-baseline:auto;fill:#fff;font-feature-settings:normal;font-variant-alternates:normal;font-variant-caps:normal;font-variant-ligatures:normal;font-variant-numeric:normal;font-variant-position:normal;image-rendering:auto;isolation:auto;mix-blend-mode:normal;paint-order:markers fill stroke;shape-padding:0;shape-rendering:auto;stroke-width:.8093;text-decoration-line:none;text-decoration-style:solid;text-indent:0;text-orientation:mixed;text-transform:none;white-space:normal"/>
 <path id="circle3" d="m7.0329 11.173c-1.7e-6 1.6731 1.0102 3.1834 2.5559 3.8236 1.5458 0.64027 3.3265 0.28684 4.5097-0.89622 1.183-1.183 1.5381-2.9654 0.89784-4.5112-0.64027-1.5458-2.1505-2.5559-3.8236-2.5559v0.74449c1.3744-7e-7 2.6101 0.82621 3.136 2.0959 0.52596 1.2698 0.23682 2.7285-0.73501 3.7004-0.9718 0.9718-2.4306 1.2625-3.7004 0.73658-1.2698-0.52595-2.0959-1.7632-2.0959-3.1377z" style="color-rendering:auto;dominant-baseline:auto;fill:#fff;font-feature-settings:normal;font-variant-alternates:normal;font-variant-caps:normal;font-variant-ligatures:normal;font-variant-numeric:normal;font-variant-position:normal;image-rendering:auto;isolation:auto;mix-blend-mode:normal;paint-order:markers fill stroke;shape-padding:0;shape-rendering:auto;stroke-width:.8093;text-decoration-line:none;text-decoration-style:solid;text-indent:0;text-orientation:mixed;text-transform:none;white-space:normal"/>
 <path id="circle5" d="m8.9961 11.173c0 0.87987 0.53066 1.6739 1.3436 2.0106 0.81294 0.33675 1.7488 0.15114 2.371-0.47104 0.62217-0.62217 0.8093-1.5597 0.47261-2.3725-0.33672-0.81294-1.1308-1.3436-2.0106-1.3436v0.39042c0.72278 0 1.372 0.43554 1.6486 1.1033 0.27662 0.66778 0.12382 1.4347-0.38727 1.9458-0.51108 0.51108-1.278 0.66386-1.9458 0.38727-0.66776-0.27659-1.1017-0.92746-1.1017-1.6502z" style="color-rendering:auto;dominant-baseline:auto;fill:#fff;font-feature-settings:normal;font-variant-alternates:normal;font-variant-caps:normal;font-variant-ligatures:normal;font-variant-numeric:normal;font-variant-position:normal;image-rendering:auto;isolation:auto;mix-blend-mode:normal;paint-order:markers fill stroke;shape-padding:0;shape-rendering:auto;stroke-width:.8093;text-decoration-line:none;text-decoration-style:solid;text-indent:0;text-orientation:mixed;text-transform:none;white-space:normal"/>
 <path id="circle6" d="m9.6173 11.173c0 0.6287 0.37862 1.1962 0.95942 1.4368 0.58083 0.24059 1.2499 0.10787 1.6945-0.33668 0.44463-0.44456 0.57885-1.1152 0.33826-1.696-0.24059-0.58083-0.80813-0.95942-1.4368-0.95942v0.27977c0.51644 0 0.97998 0.31004 1.1776 0.78717 0.19763 0.47713 0.08856 1.0258-0.27662 1.391-0.36518 0.36524-0.91224 0.47425-1.3894 0.27662-0.47716-0.19763-0.78717-0.66274-0.78717-1.1791z" style="color-rendering:auto;dominant-baseline:auto;fill:#fff;font-feature-settings:normal;font-variant-alternates:normal;font-variant-caps:normal;font-variant-ligatures:normal;font-variant-numeric:normal;font-variant-position:normal;image-rendering:auto;isolation:auto;mix-blend-mode:normal;paint-order:markers fill stroke;shape-padding:0;shape-rendering:auto;stroke-width:.8093;text-decoration-line:none;text-decoration-style:solid;text-indent:0;text-orientation:mixed;text-transform:none;white-space:normal"/>
</svg>
